C:\gitpull\docs-to-pdf-converter\docs-to-pdf-converter\src\com\yeokhengmeng\docstopdfconverter\DocxToPDFConverter.java
C:\gitpull\docs-to-pdf-converter\docs-to-pdf-converter\src\com\yeokhengmeng\docstopdfconverter\OdtToPDF.java
C:\gitpull\docs-to-pdf-converter\docs-to-pdf-converter\src\com\yeokhengmeng\docstopdfconverter\DocToPDFConverter.java
C:\gitpull\docs-to-pdf-converter\docs-to-pdf-converter\src\com\yeokhengmeng\docstopdfconverter\MainClass.java
C:\gitpull\docs-to-pdf-converter\docs-to-pdf-converter\src\com\yeokhengmeng\docstopdfconverter\PptToPDFConverter.java
C:\gitpull\docs-to-pdf-converter\docs-to-pdf-converter\src\com\yeokhengmeng\docstopdfconverter\Converter.java
C:\gitpull\docs-to-pdf-converter\docs-to-pdf-converter\src\com\yeokhengmeng\docstopdfconverter\PptxToPDFConverter.java
